     1                                 %line 1+1 chapter7_1.asm
     2                                 [segment .data]
     3 00000000 15                     origin db 00010101
     4 00000001 00                     result db 0
     5                                 [segment .bss]
     6                                 
     7 00000000 <gap>                  originbss resb 10000111
     8                                 
     9                                 [segment .text]
    10                                 [global _start]
    11                                 _start:
    12 00000000 480FBA2425[00000000]-     bt qword [origin], 0
    13 00000000 00                 
    14 0000000A 0F92D1                  setc cl
    15 0000000D 000C25[00000000]        add [result], cl
    16 00000014 480FBA2425[00000000]-     bt qword [origin], 1
    17 00000014 01                 
    18 0000001E 0F92D1                  setc cl
    19 00000021 000C25[00000000]        add [result], cl
    20 00000028 480FBA2425[00000000]-     bt qword [origin], 2
    21 00000028 02                 
    22 00000032 0F92D1                  setc cl
    23 00000035 000C25[00000000]        add [result], cl
    24 0000003C 480FBA2425[00000000]-     bt qword [origin], 3
    25 0000003C 03                 
    26 00000046 0F92D1                  setc cl
    27 00000049 000C25[00000000]        add [result], cl
    28 00000050 480FBA2425[00000000]-     bt qword [origin], 4
    29 00000050 04                 
    30 0000005A 0F92D1                  setc cl
    31 0000005D 000C25[00000000]        add [result], cl
    32 00000064 480FBA2425[00000000]-     bt qword [origin], 5
    33 00000064 05                 
    34 0000006E 0F92D1                  setc cl
    35 00000071 000C25[00000000]        add [result], cl
    36 00000078 480FBA2425[00000000]-     bt qword [origin], 6
    37 00000078 06                 
    38 00000082 0F92D1                  setc cl
    39 00000085 000C25[00000000]        add [result], cl
    40 0000008C 480FBA2425[00000000]-     bt qword [origin], 7
    41 0000008C 07                 
    42 00000096 0F92D1                  setc cl
    43 00000099 000C25[00000000]        add [result], cl
    44 000000A0 C3                      ret
    45                                 
