     1                                 %line 1+1 chapter3_4_2.asm
     2                                 [segment .data]
     3 00000000 01                     a db 1
     4 00000001 FF                     aa db -1
     5                                 
     6                                 [section .text]
     7                                 [global _start]
     8                                 _start:
     9 00000000 480FBE0425[00000000]      movsx rax , byte [a]
    10 00000009 480FBE0425[00000000]      movsx rax , byte [aa]
    11 00000012 480FB60425[00000000]      movzx rax , byte [a]
    12 0000001B 480FB60425[00000000]      movzx rax , byte [aa]
    13 00000024 C3                      ret
